G8/simulation/qsim/mips_single_cycle.msim.vcd
$comment
	File created using the following command:
		vcd file mips_single_cycle.msim.vcd -direction
$end
$date
	Fri Nov 03 01:04:32 2017
$end
$version
	ModelSim Version 10.4b
$end
$timescale
	1ps
$end

$scope module PCupdate_vlg_vec_tst $end
$var reg 1 ! branch $end
$var reg 1 " clk $end
$var reg 27 # jAddr26 [26:0] $end
$var reg 1 $ jump $end
$var reg 32 % offSet32 [31:0] $end
$var reg 1 & reset $end
$var reg 1 ' zero $end
$var wire 1 ( pc [31] $end
$var wire 1 ) pc [30] $end
$var wire 1 * pc [29] $end
$var wire 1 + pc [28] $end
$var wire 1 , pc [27] $end
$var wire 1 - pc [26] $end
$var wire 1 . pc [25] $end
$var wire 1 / pc [24] $end
$var wire 1 0 pc [23] $end
$var wire 1 1 pc [22] $end
$var wire 1 2 pc [21] $end
$var wire 1 3 pc [20] $end
$var wire 1 4 pc [19] $end
$var wire 1 5 pc [18] $end
$var wire 1 6 pc [17] $end
$var wire 1 7 pc [16] $end
$var wire 1 8 pc [15] $end
$var wire 1 9 pc [14] $end
$var wire 1 : pc [13] $end
$var wire 1 ; pc [12] $end
$var wire 1 < pc [11] $end
$var wire 1 = pc [10] $end
$var wire 1 > pc [9] $end
$var wire 1 ? pc [8] $end
$var wire 1 @ pc [7] $end
$var wire 1 A pc [6] $end
$var wire 1 B pc [5] $end
$var wire 1 C pc [4] $end
$var wire 1 D pc [3] $end
$var wire 1 E pc [2] $end
$var wire 1 F pc [1] $end
$var wire 1 G pc [0] $end

$scope module i1 $end
$var wire 1 H gnd $end
$var wire 1 I vcc $end
$var wire 1 J unknown $end
$var tri1 1 K devclrn $end
$var tri1 1 L devpor $end
$var tri1 1 M devoe $end
$var wire 1 N offSet32[30]~input_o $end
$var wire 1 O offSet32[31]~input_o $end
$var wire 1 P pc[0]~output_o $end
$var wire 1 Q pc[1]~output_o $end
$var wire 1 R pc[2]~output_o $end
$var wire 1 S pc[3]~output_o $end
$var wire 1 T pc[4]~output_o $end
$var wire 1 U pc[5]~output_o $end
$var wire 1 V pc[6]~output_o $end
$var wire 1 W pc[7]~output_o $end
$var wire 1 X pc[8]~output_o $end
$var wire 1 Y pc[9]~output_o $end
$var wire 1 Z pc[10]~output_o $end
$var wire 1 [ pc[11]~output_o $end
$var wire 1 \ pc[12]~output_o $end
$var wire 1 ] pc[13]~output_o $end
$var wire 1 ^ pc[14]~output_o $end
$var wire 1 _ pc[15]~output_o $end
$var wire 1 ` pc[16]~output_o $end
$var wire 1 a pc[17]~output_o $end
$var wire 1 b pc[18]~output_o $end
$var wire 1 c pc[19]~output_o $end
$var wire 1 d pc[20]~output_o $end
$var wire 1 e pc[21]~output_o $end
$var wire 1 f pc[22]~output_o $end
$var wire 1 g pc[23]~output_o $end
$var wire 1 h pc[24]~output_o $end
$var wire 1 i pc[25]~output_o $end
$var wire 1 j pc[26]~output_o $end
$var wire 1 k pc[27]~output_o $end
$var wire 1 l pc[28]~output_o $end
$var wire 1 m pc[29]~output_o $end
$var wire 1 n pc[30]~output_o $end
$var wire 1 o pc[31]~output_o $end
$var wire 1 p clk~input_o $end
$var wire 1 q clk~inputclkctrl_outclk $end
$var wire 1 r jAddr26[0]~input_o $end
$var wire 1 s Add0~0_combout $end
$var wire 1 t reset~input_o $end
$var wire 1 u s_pc~0_combout $end
$var wire 1 v jump~input_o $end
$var wire 1 w s_pc[0]~1_combout $end
$var wire 1 x jAddr26[1]~input_o $end
$var wire 1 y Add0~1 $end
$var wire 1 z Add0~2_combout $end
$var wire 1 { s_pc~2_combout $end
$var wire 1 | jAddr26[2]~input_o $end
$var wire 1 } Add0~3 $end
$var wire 1 ~ Add0~4_combout $end
$var wire 1 !! zero~input_o $end
$var wire 1 "! Add2~0_combout $end
$var wire 1 #! branch~input_o $end
$var wire 1 $! offSet32[0]~input_o $end
$var wire 1 %! Add1~0_combout $end
$var wire 1 &! Add1~2_combout $end
$var wire 1 '! Add1~3_combout $end
$var wire 1 (! jAddr26[3]~input_o $end
$var wire 1 )! Add0~5 $end
$var wire 1 *! Add0~6_combout $end
$var wire 1 +! offSet32[1]~input_o $end
$var wire 1 ,! Add2~1 $end
$var wire 1 -! Add2~2_combout $end
$var wire 1 .! Add1~1 $end
$var wire 1 /! Add1~4_combout $end
$var wire 1 0! Add1~6_combout $end
$var wire 1 1! Add1~7_combout $end
$var wire 1 2! jAddr26[4]~input_o $end
$var wire 1 3! Add0~7 $end
$var wire 1 4! Add0~8_combout $end
$var wire 1 5! offSet32[2]~input_o $end
$var wire 1 6! Add2~3 $end
$var wire 1 7! Add2~4_combout $end
$var wire 1 8! Add1~5 $end
$var wire 1 9! Add1~8_combout $end
$var wire 1 :! Add1~10_combout $end
$var wire 1 ;! Add1~11_combout $end
$var wire 1 <! Add1~16_combout $end
$var wire 1 =! Add2~5 $end
$var wire 1 >! Add2~6_combout $end
$var wire 1 ?! offSet32[3]~input_o $end
$var wire 1 @! Add1~9 $end
$var wire 1 A! Add1~14_combout $end
$var wire 1 B! jAddr26[5]~input_o $end
$var wire 1 C! Add0~9 $end
$var wire 1 D! Add0~10_combout $end
$var wire 1 E! Add1~12_combout $end
$var wire 1 F! Add1~13_combout $end
$var wire 1 G! Add1~17_combout $end
$var wire 1 H! Add2~7 $end
$var wire 1 I! Add2~8_combout $end
$var wire 1 J! offSet32[4]~input_o $end
$var wire 1 K! Add1~15 $end
$var wire 1 L! Add1~19_combout $end
$var wire 1 M! jAddr26[6]~input_o $end
$var wire 1 N! Add0~11 $end
$var wire 1 O! Add0~12_combout $end
$var wire 1 P! Add1~18_combout $end
$var wire 1 Q! Add1~21_combout $end
$var wire 1 R! Add2~9 $end
$var wire 1 S! Add2~10_combout $end
$var wire 1 T! offSet32[5]~input_o $end
$var wire 1 U! Add1~20 $end
$var wire 1 V! Add1~23_combout $end
$var wire 1 W! jAddr26[7]~input_o $end
$var wire 1 X! Add0~13 $end
$var wire 1 Y! Add0~14_combout $end
$var wire 1 Z! Add1~22_combout $end
$var wire 1 [! Add1~25_combout $end
$var wire 1 \! Add2~11 $end
$var wire 1 ]! Add2~12_combout $end
$var wire 1 ^! offSet32[6]~input_o $end
$var wire 1 _! Add1~24 $end
$var wire 1 `! Add1~27_combout $end
$var wire 1 a! jAddr26[8]~input_o $end
$var wire 1 b! Add0~15 $end
$var wire 1 c! Add0~16_combout $end
$var wire 1 d! Add1~26_combout $end
$var wire 1 e! Add1~29_combout $end
$var wire 1 f! Add2~13 $end
$var wire 1 g! Add2~14_combout $end
$var wire 1 h! jAddr26[9]~input_o $end
$var wire 1 i! Add0~17 $end
$var wire 1 j! Add0~18_combout $end
$var wire 1 k! Add1~30_combout $end
$var wire 1 l! offSet32[7]~input_o $end
$var wire 1 m! Add1~28 $end
$var wire 1 n! Add1~31_combout $end
$var wire 1 o! Add1~33_combout $end
$var wire 1 p! offSet32[8]~input_o $end
$var wire 1 q! Add2~15 $end
$var wire 1 r! Add2~16_combout $end
$var wire 1 s! Add1~32 $end
$var wire 1 t! Add1~35_combout $end
$var wire 1 u! jAddr26[10]~input_o $end
$var wire 1 v! Add0~19 $end
$var wire 1 w! Add0~20_combout $end
$var wire 1 x! Add1~34_combout $end
$var wire 1 y! Add1~37_combout $end
$var wire 1 z! Add2~17 $end
$var wire 1 {! Add2~18_combout $end
$var wire 1 |! jAddr26[11]~input_o $end
$var wire 1 }! Add0~21 $end
$var wire 1 ~! Add0~22_combout $end
$var wire 1 !" Add1~38_combout $end
$var wire 1 "" offSet32[9]~input_o $end
$var wire 1 #" Add1~36 $end
$var wire 1 $" Add1~39_combout $end
$var wire 1 %" Add1~41_combout $end
$var wire 1 &" offSet32[10]~input_o $end
$var wire 1 '" Add2~19 $end
$var wire 1 (" Add2~20_combout $end
$var wire 1 )" Add1~40 $end
$var wire 1 *" Add1~43_combout $end
$var wire 1 +" jAddr26[12]~input_o $end
$var wire 1 ," Add0~23 $end
$var wire 1 -" Add0~24_combout $end
$var wire 1 ." Add1~42_combout $end
$var wire 1 /" Add1~45_combout $end
$var wire 1 0" offSet32[11]~input_o $end
$var wire 1 1" Add2~21 $end
$var wire 1 2" Add2~22_combout $end
$var wire 1 3" Add1~44 $end
$var wire 1 4" Add1~47_combout $end
$var wire 1 5" jAddr26[13]~input_o $end
$var wire 1 6" Add0~25 $end
$var wire 1 7" Add0~26_combout $end
$var wire 1 8" Add1~46_combout $end
$var wire 1 9" Add1~49_combout $end
$var wire 1 :" Add2~23 $end
$var wire 1 ;" Add2~24_combout $end
$var wire 1 <" jAddr26[14]~input_o $end
$var wire 1 =" Add0~27 $end
$var wire 1 >" Add0~28_combout $end
$var wire 1 ?" Add1~50_combout $end
$var wire 1 @" offSet32[12]~input_o $end
$var wire 1 A" Add1~48 $end
$var wire 1 B" Add1~51_combout $end
$var wire 1 C" Add1~53_combout $end
$var wire 1 D" Add2~25 $end
$var wire 1 E" Add2~26_combout $end
$var wire 1 F" jAddr26[15]~input_o $end
$var wire 1 G" Add0~29 $end
$var wire 1 H" Add0~30_combout $end
$var wire 1 I" Add1~54_combout $end
$var wire 1 J" offSet32[13]~input_o $end
$var wire 1 K" Add1~52 $end
$var wire 1 L" Add1~55_combout $end
$var wire 1 M" Add1~57_combout $end
$var wire 1 N" offSet32[14]~input_o $end
$var wire 1 O" Add2~27 $end
$var wire 1 P" Add2~28_combout $end
$var wire 1 Q" Add1~56 $end
$var wire 1 R" Add1~59_combout $end
$var wire 1 S" jAddr26[16]~input_o $end
$var wire 1 T" Add0~31 $end
$var wire 1 U" Add0~32_combout $end
$var wire 1 V" Add1~58_combout $end
$var wire 1 W" Add1~61_combout $end
$var wire 1 X" Add2~29 $end
$var wire 1 Y" Add2~30_combout $end
$var wire 1 Z" offSet32[15]~input_o $end
$var wire 1 [" Add1~60 $end
$var wire 1 \" Add1~63_combout $end
$var wire 1 ]" jAddr26[17]~input_o $end
$var wire 1 ^" Add0~33 $end
$var wire 1 _" Add0~34_combout $end
$var wire 1 `" Add1~62_combout $end
$var wire 1 a" Add1~65_combout $end
$var wire 1 b" Add2~31 $end
$var wire 1 c" Add2~32_combout $end
$var wire 1 d" jAddr26[18]~input_o $end
$var wire 1 e" Add0~35 $end
$var wire 1 f" Add0~36_combout $end
$var wire 1 g" Add1~66_combout $end
$var wire 1 h" offSet32[16]~input_o $end
$var wire 1 i" Add1~64 $end
$var wire 1 j" Add1~67_combout $end
$var wire 1 k" Add1~69_combout $end
$var wire 1 l" offSet32[17]~input_o $end
$var wire 1 m" Add2~33 $end
$var wire 1 n" Add2~34_combout $end
$var wire 1 o" Add1~68 $end
$var wire 1 p" Add1~71_combout $end
$var wire 1 q" jAddr26[19]~input_o $end
$var wire 1 r" Add0~37 $end
$var wire 1 s" Add0~38_combout $end
$var wire 1 t" Add1~70_combout $end
$var wire 1 u" Add1~73_combout $end
$var wire 1 v" offSet32[18]~input_o $end
$var wire 1 w" Add2~35 $end
$var wire 1 x" Add2~36_combout $end
$var wire 1 y" Add1~72 $end
$var wire 1 z" Add1~75_combout $end
$var wire 1 {" jAddr26[20]~input_o $end
$var wire 1 |" Add0~39 $end
$var wire 1 }" Add0~40_combout $end
$var wire 1 ~" Add1~74_combout $end
$var wire 1 !# Add1~77_combout $end
$var wire 1 "# jAddr26[21]~input_o $end
$var wire 1 ## Add0~41 $end
$var wire 1 $# Add0~42_combout $end
$var wire 1 %# Add2~37 $end
$var wire 1 &# Add2~38_combout $end
$var wire 1 '# Add1~78_combout $end
$var wire 1 (# offSet32[19]~input_o $end
$var wire 1 )# Add1~76 $end
$var wire 1 *# Add1~79_combout $end
$var wire 1 +# Add1~81_combout $end
$var wire 1 ,# jAddr26[22]~input_o $end
$var wire 1 -# Add0~43 $end
$var wire 1 .# Add0~44_combout $end
$var wire 1 /# Add2~39 $end
$var wire 1 0# Add2~40_combout $end
$var wire 1 1# Add1~82_combout $end
$var wire 1 2# offSet32[20]~input_o $end
$var wire 1 3# Add1~80 $end
$var wire 1 4# Add1~83_combout $end
$var wire 1 5# Add1~85_combout $end
$var wire 1 6# Add2~41 $end
$var wire 1 7# Add2~42_combout $end
$var wire 1 8# jAddr26[23]~input_o $end
$var wire 1 9# Add0~45 $end
$var wire 1 :# Add0~46_combout $end
$var wire 1 ;# Add1~86_combout $end
$var wire 1 <# offSet32[21]~input_o $end
$var wire 1 =# Add1~84 $end
$var wire 1 ># Add1~87_combout $end
$var wire 1 ?# Add1~89_combout $end
$var wire 1 @# Add2~43 $end
$var wire 1 A# Add2~44_combout $end
$var wire 1 B# offSet32[22]~input_o $end
$var wire 1 C# Add1~88 $end
$var wire 1 D# Add1~91_combout $end
$var wire 1 E# jAddr26[24]~input_o $end
$var wire 1 F# Add0~47 $end
$var wire 1 G# Add0~48_combout $end
$var wire 1 H# Add1~90_combout $end
$var wire 1 I# Add1~93_combout $end
$var wire 1 J# Add2~45 $end
$var wire 1 K# Add2~46_combout $end
$var wire 1 L# offSet32[23]~input_o $end
$var wire 1 M# Add1~92 $end
$var wire 1 N# Add1~95_combout $end
$var wire 1 O# jAddr26[25]~input_o $end
$var wire 1 P# Add0~49 $end
$var wire 1 Q# Add0~50_combout $end
$var wire 1 R# Add1~94_combout $end
$var wire 1 S# Add1~97_combout $end
$var wire 1 T# jAddr26[26]~input_o $end
$var wire 1 U# Add0~51 $end
$var wire 1 V# Add0~52_combout $end
$var wire 1 W# Add2~47 $end
$var wire 1 X# Add2~48_combout $end
$var wire 1 Y# Add1~98_combout $end
$var wire 1 Z# offSet32[24]~input_o $end
$var wire 1 [# Add1~96 $end
$var wire 1 \# Add1~99_combout $end
$var wire 1 ]# Add1~101_combout $end
$var wire 1 ^# Add2~49 $end
$var wire 1 _# Add2~50_combout $end
$var wire 1 `# Add0~53 $end
$var wire 1 a# Add0~54_combout $end
$var wire 1 b# Add1~102_combout $end
$var wire 1 c# offSet32[25]~input_o $end
$var wire 1 d# Add1~100 $end
$var wire 1 e# Add1~103_combout $end
$var wire 1 f# Add1~105_combout $end
$var wire 1 g# Add2~51 $end
$var wire 1 h# Add2~52_combout $end
$var wire 1 i# Add0~55 $end
$var wire 1 j# Add0~56_combout $end
$var wire 1 k# Add1~106_combout $end
$var wire 1 l# offSet32[26]~input_o $end
$var wire 1 m# Add1~104 $end
$var wire 1 n# Add1~107_combout $end
$var wire 1 o# Add1~109_combout $end
$var wire 1 p# Add2~53 $end
$var wire 1 q# Add2~54_combout $end
$var wire 1 r# Add0~57 $end
$var wire 1 s# Add0~58_combout $end
$var wire 1 t# Add1~110_combout $end
$var wire 1 u# offSet32[27]~input_o $end
$var wire 1 v# Add1~108 $end
$var wire 1 w# Add1~111_combout $end
$var wire 1 x# Add1~113_combout $end
$var wire 1 y# Add2~55 $end
$var wire 1 z# Add2~56_combout $end
$var wire 1 {# offSet32[28]~input_o $end
$var wire 1 |# Add1~112 $end
$var wire 1 }# Add1~115_combout $end
$var wire 1 ~# Add0~59 $end
$var wire 1 !$ Add0~60_combout $end
$var wire 1 "$ Add1~114_combout $end
$var wire 1 #$ Add1~117_combout $end
$var wire 1 $$ Add0~61 $end
$var wire 1 %$ Add0~62_combout $end
$var wire 1 &$ Add2~57 $end
$var wire 1 '$ Add2~58_combout $end
$var wire 1 ($ Add1~118_combout $end
$var wire 1 )$ offSet32[29]~input_o $end
$var wire 1 *$ Add1~116 $end
$var wire 1 +$ Add1~119_combout $end
$var wire 1 ,$ Add1~121_combout $end
$var wire 1 -$ s_pc [31] $end
$var wire 1 .$ s_pc [30] $end
$var wire 1 /$ s_pc [29] $end
$var wire 1 0$ s_pc [28] $end
$var wire 1 1$ s_pc [27] $end
$var wire 1 2$ s_pc [26] $end
$var wire 1 3$ s_pc [25] $end
$var wire 1 4$ s_pc [24] $end
$var wire 1 5$ s_pc [23] $end
$var wire 1 6$ s_pc [22] $end
$var wire 1 7$ s_pc [21] $end
$var wire 1 8$ s_pc [20] $end
$var wire 1 9$ s_pc [19] $end
$var wire 1 :$ s_pc [18] $end
$var wire 1 ;$ s_pc [17] $end
$var wire 1 <$ s_pc [16] $end
$var wire 1 =$ s_pc [15] $end
$var wire 1 >$ s_pc [14] $end
$var wire 1 ?$ s_pc [13] $end
$var wire 1 @$ s_pc [12] $end
$var wire 1 A$ s_pc [11] $end
$var wire 1 B$ s_pc [10] $end
$var wire 1 C$ s_pc [9] $end
$var wire 1 D$ s_pc [8] $end
$var wire 1 E$ s_pc [7] $end
$var wire 1 F$ s_pc [6] $end
$var wire 1 G$ s_pc [5] $end
$var wire 1 H$ s_pc [4] $end
$var wire 1 I$ s_pc [3] $end
$var wire 1 J$ s_pc [2] $end
$var wire 1 K$ s_pc [1] $end
$var wire 1 L$ s_pc [0] $end
$upscope $end
$upscope $end
$enddefinitions $end
#0
$dumpvars
0!
0"
b0 #
0$
b0 %
1&
0'
0G
0F
0E
0D
0C
0B
0A
0@
0?
0>
0=
0<
0;
0:
09
08
07
06
05
04
03
02
01
00
0/
0.
0-
0,
0+
0*
0)
0(
0H
1I
xJ
1K
1L
1M
0N
0O
0P
0Q
0R
0S
0T
0U
0V
0W
0X
0Y
0Z
0[
0\
0]
0^
0_
0`
0a
0b
0c
0d
0e
0f
0g
0h
0i
0j
0k
0l
0m
0n
0o
0p
0q
0r
0s
1t
0u
0v
1w
0x
0y
0z
0{
0|
1}
0~
0!!
1"!
0#!
0$!
1%!
1&!
1'!
0(!
0)!
0*!
0+!
0,!
0-!
0.!
0/!
00!
01!
02!
13!
04!
05!
16!
07!
18!
09!
0:!
0;!
0<!
0=!
0>!
0?!
0@!
0A!
0B!
0C!
0D!
1E!
0F!
0G!
1H!
0I!
0J!
1K!
0L!
0M!
1N!
0O!
0P!
0Q!
0R!
0S!
0T!
0U!
0V!
0W!
0X!
0Y!
0Z!
0[!
1\!
0]!
0^!
1_!
0`!
0a!
1b!
0c!
0d!
0e!
0f!
0g!
0h!
0i!
0j!
0k!
0l!
0m!
0n!
0o!
0p!
1q!
0r!
1s!
0t!
0u!
1v!
0w!
0x!
0y!
0z!
0{!
0|!
0}!
0~!
0!"
0""
0#"
0$"
0%"
0&"
1'"
0("
1)"
0*"
0+"
1,"
0-"
0."
0/"
00"
01"
02"
03"
04"
05"
06"
07"
08"
09"
1:"
0;"
0<"
1="
0>"
0?"
0@"
1A"
0B"
0C"
0D"
0E"
0F"
0G"
0H"
0I"
0J"
0K"
0L"
0M"
0N"
1O"
0P"
1Q"
0R"
0S"
1T"
0U"
0V"
0W"
0X"
0Y"
0Z"
0["
0\"
0]"
0^"
0_"
0`"
0a"
1b"
0c"
0d"
1e"
0f"
0g"
0h"
1i"
0j"
0k"
0l"
0m"
0n"
0o"
0p"
0q"
0r"
0s"
0t"
0u"
0v"
1w"
0x"
1y"
0z"
0{"
1|"
0}"
0~"
0!#
0"#
0##
0$#
0%#
0&#
0'#
0(#
0)#
0*#
0+#
0,#
1-#
0.#
1/#
00#
01#
02#
13#
04#
05#
06#
07#
08#
09#
0:#
0;#
0<#
0=#
0>#
0?#
1@#
0A#
0B#
1C#
0D#
0E#
1F#
0G#
0H#
0I#
0J#
0K#
0L#
0M#
0N#
0O#
0P#
0Q#
0R#
0S#
0T#
1U#
0V#
1W#
0X#
0Y#
0Z#
1[#
0\#
0]#
0^#
0_#
0`#
0a#
0b#
0c#
0d#
0e#
0f#
1g#
0h#
1i#
0j#
0k#
0l#
1m#
0n#
0o#
0p#
0q#
0r#
0s#
0t#
0u#
0v#
0w#
0x#
1y#
0z#
0{#
1|#
0}#
1~#
0!$
0"$
0#$
0$$
0%$
0&$
0'$
0($
0)$
0*$
0+$
0,$
0L$
0K$
0J$
0I$
0H$
0G$
0F$
0E$
0D$
0C$
0B$
0A$
0@$
0?$
0>$
0=$
0<$
0;$
0:$
09$
08$
07$
06$
05$
04$
03$
02$
01$
00$
0/$
0.$
0-$
$end
#5000
1"
1p
1q
#10000
0"
0p
0q
#15000
1"
1p
1q
#20000
0"
0p
0q
#25000
1"
1p
1q
#30000
0"
0p
0q
#35000
1"
1p
1q
#40000
0"
0p
0q
#45000
1"
1p
1q
#50000
0&
1$
b100 #
b101 #
0"
0t
1v
1r
1|
0p
0q
0E!
1s
1~
0'!
1u
1'!
#55000
1"
1p
1q
1J$
1L$
1P
1R
1,!
0"!
1)!
0~
1y
0s
1E
1G
1-!
0&!
0%!
1*!
1z
0u
0'!
10!
1/!
1{
11!
#60000
0"
0p
0q
#65000
1"
1p
1q
1I$
0J$
1K$
0L$
0P
1Q
0R
1S
06!
0-!
03!
0*!
0,!
1"!
0)!
1~
0}
0z
0y
1s
1D
0E
1F
0G
17!
00!
0/!
14!
16!
1-!
1&!
1%!
13!
1*!
1)!
0~
0{
1}
1z
1u
01!
1'!
1:!
19!
10!
07!
1/!
04!
03!
0*!
0)!
1~
1{
11!
1;!
0'!
0:!
09!
14!
13!
1*!
0;!
01!
1'!
04!
1;!
11!
0;!
#70000
0"
0p
0q
#75000
1"
1p
1q
1J$
1L$
1P
1R
1,!
0"!
1)!
0~
1y
0s
1E
1G
06!
0-!
0&!
0%!
03!
0*!
0}
0z
0u
0'!
17!
00!
0/!
14!
1~
0{
01!
1:!
19!
1;!
1'!
#80000
0"
0p
0q
#85000
1"
1p
1q
1H$
0I$
0K$
0L$
0P
0Q
0S
1T
1=!
07!
1C!
04!
16!
1-!
13!
1*!
1}
1z
0y
1s
1C
0D
0F
0G
1>!
0:!
09!
1D!
0=!
17!
10!
1/!
0C!
14!
0~
1{
0z
1u
0;!
11!
1F!
1A!
1:!
0>!
19!
0D!
0{
1;!
0'!
0F!
0A!
1G!
0G!
#90000
0"
0p
0q
#95000
1"
1p
1q
1I$
0J$
1L$
1P
0R
1S
06!
0-!
03!
0*!
0,!
1"!
0)!
1~
1y
0s
1D
0E
1G
1=!
07!
00!
0/!
1C!
04!
16!
1-!
1&!
1%!
13!
1*!
1z
0u
01!
1'!
1>!
0:!
09!
10!
1D!
0=!
17!
1/!
0C!
14!
1{
11!
0;!
1F!
1A!
1:!
0>!
19!
0D!
1;!
0F!
0A!
1G!
0G!
#100000
0"
0p
0q
#105000
1"
1p
1q
1J$
1K$
0L$
0P
1Q
1R
1,!
0"!
1)!
0~
0}
0z
0y
1s
1E
1F
0G
06!
0-!
0&!
0%!
03!
0*!
1~
0{
1}
1z
1u
0'!
1=!
07!
00!
0/!
1C!
04!
0~
1{
1'!
01!
1>!
0:!
09!
1D!
0;!
0'!
1F!
1A!
1G!
#110000
0"
0p
0q
#115000
1"
1p
1q
1G$
0H$
0I$
0J$
1L$
1P
0R
0S
0T
1U
0N!
0D!
0H!
0>!
0=!
17!
0C!
14!
16!
1-!
13!
1*!
0,!
1"!
0)!
1~
1y
0s
1B
0C
0D
0E
1G
1O!
0F!
1I!
0A!
1H!
1>!
1:!
19!
1N!
1D!
07!
10!
1/!
04!
0-!
1&!
1%!
0*!
0}
0z
0u
1;!
11!
1'!
1P!
1L!
0I!
1F!
1A!
0:!
0O!
09!
00!
0/!
1)!
0~
0{
0G!
0;!
01!
0P!
0L!
1*!
1Q!
1G!
0'!
0Q!
11!
#120000
0"
0p
0q
#125000
1"
1p
1q
1I$
0K$
0L$
0P
0Q
1S
1-!
03!
0*!
1}
1z
0y
1s
1D
0F
0G
10!
1/!
14!
0)!
1~
1{
0z
1u
01!
13!
1*!
0{
1;!
1'!
04!
11!
0;!
#130000
0"
0p
0q
#135000
1"
1p
1q
1J$
1L$
1P
1R
1,!
0"!
1)!
0~
1y
0s
1E
1G
06!
0-!
0&!
0%!
03!
0*!
1z
0u
0'!
17!
00!
0/!
14!
1{
01!
1:!
19!
1;!
#140000
0"
0p
0q
#145000
1"
1p
1q
1H$
0I$
0J$
1K$
0L$
0P
1Q
0R
0S
1T
1=!
07!
1C!
04!
16!
1-!
13!
1*!
0,!
1"!
0)!
1~
0}
0z
0y
1s
1C
0D
0E
1F
0G
0H!
0>!
0:!
09!
0N!
0D!
0=!
17!
10!
1/!
0C!
14!
0-!
1&!
1%!
0*!
1)!
0~
0{
1}
1z
1u
0;!
11!
1'!
1I!
0F!
0A!
1:!
1O!
1H!
1>!
19!
00!
1N!
1D!
0/!
1*!
0)!
1~
1{
1;!
01!
0'!
1P!
1L!
0I!
1F!
1A!
0O!
0*!
0G!
11!
1'!
0P!
0L!
1Q!
1G!
01!
0Q!
#150000
0"
0p
0q
#155000
1"
1p
1q
1J$
1L$
1P
1R
1,!
0"!
1)!
0~
1y
0s
1E
1G
1-!
0&!
0%!
1*!
0}
0z
0u
0'!
10!
1/!
1~
0{
11!
1'!
#160000
0"
0p
0q
#165000
1"
1p
1q
1I$
0K$
0L$
0P
0Q
1S
06!
0-!
03!
0*!
1}
1z
0y
1s
1D
0F
0G
1=!
07!
00!
0/!
1C!
04!
0~
1{
0z
1u
01!
0H!
0>!
0:!
09!
0N!
0D!
0{
0;!
0'!
1I!
0F!
0A!
1O!
1P!
1L!
0G!
1Q!
#170000
0$
b1 #
b0 #
0"
0v
0r
0|
0p
0q
0P!
1E!
0w
0s
0)!
1~
1P!
0u
13!
1*!
0Q!
0C!
14!
1Q!
1N!
1D!
0O!
#175000
1"
1p
1q
1F$
0G$
0H$
0I$
0J$
0R
0S
0T
0U
1V
1O!
1R!
0I!
0D!
1H!
1>!
0=!
17!
04!
16!
1-!
0*!
0,!
1"!
0~
1A
0B
0C
0D
0E
0P!
1S!
0L!
1F!
0R!
1I!
1A!
0>!
1:!
19!
07!
10!
1/!
0-!
1&!
1%!
1Z!
1V!
0S!
1P!
1L!
0F!
0A!
0:!
09!
00!
0/!
0Q!
1G!
1;!
11!
1'!
0Z!
0V!
1[!
1Q!
0G!
0;!
01!
0[!
#180000
0"
0p
0q
#185000
1"
1p
1q
1J$
1R
1,!
0"!
1~
1E
1-!
0&!
0%!
10!
1/!
0'!
11!
#190000
0"
0p
0q
#195000
1"
1p
1q
1I$
0J$
0R
1S
06!
0-!
1*!
0,!
1"!
0~
1D
0E
17!
00!
0/!
16!
1-!
1&!
1%!
1:!
19!
10!
07!
1/!
01!
1'!
0:!
09!
1;!
11!
0;!
#200000
0"
0p
0q
#205000
1"
1p
1q
1J$
1R
1,!
0"!
1~
1E
06!
0-!
0&!
0%!
17!
00!
0/!
0'!
1:!
19!
01!
1;!
#210000
0"
0p
0q
#215000
1"
1p
1q
1H$
0I$
0J$
0R
0S
1T
1=!
07!
14!
16!
1-!
0*!
0,!
1"!
0~
1C
0D
0E
1>!
0:!
09!
0=!
17!
10!
1/!
0-!
1&!
1%!
1F!
1A!
1:!
0>!
19!
00!
0/!
0;!
11!
1'!
0F!
0A!
1G!
1;!
01!
0G!
#220000
b10000 %
b10100 %
0"
15!
1J!
0p
0q
1@!
09!
1U!
0L!
1A!
1V!
#225000
1"
1p
1q
1J$
1R
1,!
0"!
1~
1E
1-!
0&!
0%!
10!
1/!
0'!
11!
#230000
0"
0p
0q
#235000
1"
1p
1q
1I$
0J$
0R
1S
06!
0-!
1*!
0,!
1"!
0~
1D
0E
1=!
07!
00!
0/!
16!
1-!
1&!
1%!
1>!
0:!
0@!
19!
10!
0=!
17!
1/!
01!
1'!
1F!
1:!
0>!
1@!
09!
0;!
11!
0F!
1G!
1;!
0G!
#240000
1!
0"
1#!
0p
0q
#245000
1"
1p
1q
1J$
1R
1,!
0"!
1~
1E
06!
0-!
0&!
0%!
1=!
07!
00!
0/!
0'!
1>!
0:!
0@!
19!
01!
1F!
0;!
1G!
#250000
0"
0p
0q
#255000
1"
1p
1q
1G$
0H$
0I$
0J$
0R
0S
0T
1U
1D!
0H!
0>!
0=!
17!
04!
16!
1-!
0*!
0,!
1"!
0~
1B
0C
0D
0E
0F!
1R!
0I!
0A!
1H!
1>!
1:!
1@!
09!
07!
10!
1/!
0-!
1&!
1%!
1S!
0P!
0U!
1L!
0R!
1I!
1F!
0K!
0:!
0@!
19!
00!
0/!
0G!
1;!
11!
1'!
1Z!
0S!
1P!
1U!
1K!
1A!
0Q!
1G!
0;!
01!
0Z!
0L!
1[!
1Q!
0[!
#260000
0"
0p
0q
#265000
1"
1p
1q
1J$
1R
1,!
0"!
1~
1E
1-!
0&!
0%!
10!
1/!
0'!
11!
#270000
0"
0p
0q
#275000
1"
1p
1q
1I$
0J$
0R
1S
06!
0-!
1*!
0,!
1"!
0~
1D
0E
17!
00!
0/!
16!
1-!
1&!
1%!
1:!
1@!
09!
10!
07!
1/!
01!
1'!
0K!
0A!
0:!
0@!
19!
1;!
11!
1L!
1K!
1A!
0;!
0L!
#280000
0"
0p
0q
#285000
1"
1p
1q
1J$
1R
1,!
0"!
1~
1E
06!
0-!
0&!
0%!
17!
00!
0/!
0'!
1:!
1@!
09!
01!
0K!
0A!
1;!
1L!
#290000
0"
0p
0q
#295000
1"
1p
1q
1H$
0I$
0J$
0R
0S
1T
1=!
07!
14!
16!
1-!
0*!
0,!
1"!
0~
1C
0D
0E
0H!
0>!
0:!
0@!
19!
0=!
17!
10!
1/!
0-!
1&!
1%!
1R!
0I!
0F!
1K!
1:!
1H!
1>!
1@!
09!
00!
0/!
0;!
11!
1'!
1S!
0P!
0U!
0R!
1I!
1F!
0K!
0G!
1;!
01!
1Z!
0S!
1P!
1U!
0Q!
1G!
0Z!
1[!
1Q!
0[!
#300000
0"
0p
0q
#305000
1"
1p
1q
1J$
1R
1,!
0"!
1~
1E
1-!
0&!
0%!
10!
1/!
0'!
11!
#310000
0"
0p
0q
